{
    "KPlugin": {
        "Description": "Colored brackets for readability",
        "Description[az]": "Oxunabilən rəngli mötərizələr",
        "Description[bg]": "Оцветени скоби за по-добра прегледност",
        "Description[ca@valencia]": "Claus amb color per a llegir millor",
        "Description[ca]": "Claus amb color per a llegir millor",
        "Description[de]": "Farbige Klammern für bessere Lesbarkeit",
        "Description[el]": "Έγχρωμες αγκύλες για αναγνωσιμότητα",
        "Description[en_GB]": "Coloured brackets for readability",
        "Description[eo]": "Koloraj krampoj por legebleco",
        "Description[es]": "Paréntesis de colores para mejor legibilidad",
        "Description[eu]": "Koloretako kortxeteak irakurgarritasunerako",
        "Description[fi]": "Luettavuutta parantavat värilliset sulkeet",
        "Description[fr]": "Parenthèses colorées pour plus de lisibilité",
        "Description[gl]": "Chaves coloradas para mellorar a lexibilidade.",
        "Description[hu]": "Színezett zárójelek az olvashatósághoz",
        "Description[ia]": "Parentheses colorate per legibilitate",
        "Description[ie]": "Colorat crampones por augmentar leibilitá",
        "Description[it]": "Parentesi colorate per la leggibilità",
        "Description[ka]": "გაფერადებული ბრჭყალები ადვილად დასაკითხად",
        "Description[ko]": "가독성 개선을 위하여 괄호에 색상 추가",
        "Description[nl]": "Gekleurde blokhaakjes voor leesbaarheid",
        "Description[pl]": "Barwne nawiasy dla czytelności",
        "Description[pt]": "Parênteses coloridos para legibilidade",
        "Description[ru]": "Цветные скобки для улучшения читаемости",
        "Description[sk]": "Farebné zátvorky pre lepšiu čitateľnosť",
        "Description[sl]": "Pobarvani oklepaji za berljivost",
        "Description[sv]": "Färgade parenteser för läsbarhet",
        "Description[tr]": "Okunabilirlik için renkli ayraçlar",
        "Description[uk]": "Кольорові дужки для зручності читання",
        "Description[vi]": "Dấu ngoặc được tô màu cho dễ đọc",
        "Description[x-test]": "xxColored brackets for readabilityxx",
        "Description[zh_CN]": "提升可读性的彩色括号",
        "Name": "Colored Brackets",
        "Name[az]": "Rəngli mötərizələr",
        "Name[bg]": "Оцветени скоби",
        "Name[ca@valencia]": "Claus amb color",
        "Name[ca]": "Claus amb color",
        "Name[cs]": "Obarvené závorky",
        "Name[de]": "Farbige Klammern",
        "Name[el]": "Έγχρωμες αγκύλες",
        "Name[en_GB]": "Coloured Brackets",
        "Name[eo]": "Koloraj Krampoj",
        "Name[es]": "Paréntesis de colores",
        "Name[eu]": "Koloretako kortxeteak",
        "Name[fi]": "Värilliset sulkeet",
        "Name[fr]": "Parenthèses colorées",
        "Name[gl]": "Chaves coradas",
        "Name[hu]": "Színes zárójelek",
        "Name[ia]": "Parentheses colorate",
        "Name[ie]": "Colorat crampones",
        "Name[it]": "Parentesi colorate",
        "Name[ka]": "გაფერადებული ბრჭყალები",
        "Name[ko]": "색깔 있는 괄호",
        "Name[nl]": "Gekleurde blokhaakjes",
        "Name[pl]": "Barwne nawiasy",
        "Name[pt]": "Parênteses Coloridos",
        "Name[ru]": "Цветные скобки",
        "Name[sk]": "Výber farby",
        "Name[sl]": "Pobarvani oklepaji",
        "Name[sv]": "Färgade parenteser",
        "Name[tr]": "Renkli Ayraçlar",
        "Name[uk]": "Кольорові дужки",
        "Name[vi]": "Dấu ngoặc được tô màu",
        "Name[x-test]": "xxColored Bracketsxx",
        "Name[zh_CN]": "彩色括号",
        "ServiceTypes": [
            "KTextEditor/Plugin"
        ]
    }
}
