{
    "KPlugin": {
        "Description": "External Tools",
        "Description[az]": "Xarici alətlər",
        "Description[bg]": "Външни инструменти",
        "Description[ca@valencia]": "Eines externes",
        "Description[ca]": "Eines externes",
        "Description[cs]": "Externí nástroje",
        "Description[de]": "Externe Programme",
        "Description[el]": "Εξωτερικά εργαλεία",
        "Description[en_GB]": "External Tools",
        "Description[eo]": "Eksteraj Iloj",
        "Description[es]": "Herramientas externas",
        "Description[eu]": "Kanpoko tresnak",
        "Description[fi]": "Ulkoiset työkalut",
        "Description[fr]": "Outils externes",
        "Description[gl]": "Ferramentas externas.",
        "Description[hu]": "Külső eszközök",
        "Description[ia]": "Instrumentos externe",
        "Description[ie]": "Utensiles extern",
        "Description[it]": "Strumenti esterni",
        "Description[ka]": "გარე ხელსაწყოები",
        "Description[ko]": "외부 도구",
        "Description[my]": "ပြင်ပကိရိယာများ",
        "Description[nl]": "Externe hulpmiddelen",
        "Description[pl]": "Narzędzia zewnętrzne",
        "Description[pt]": "Ferramentas Externas",
        "Description[pt_BR]": "Ferramentas externas",
        "Description[ru]": "Внешние инструменты",
        "Description[sk]": "Externé nástroje",
        "Description[sl]": "Zunanja orodja",
        "Description[sv]": "Externa verktyg",
        "Description[tr]": "Dış Araçlar",
        "Description[uk]": "Зовнішні інструменти",
        "Description[vi]": "Công cụ bên ngoài",
        "Description[x-test]": "xxExternal Toolsxx",
        "Description[zh_CN]": "外部工具",
        "Icon": "system-run",
        "Name": "External Tools",
        "Name[ar]": "الأدوات الخارجية",
        "Name[az]": "Xarici alətlər",
        "Name[bg]": "Външни инструменти",
        "Name[ca@valencia]": "Eines externes",
        "Name[ca]": "Eines externes",
        "Name[cs]": "Externí nástroje",
        "Name[de]": "Externe Programme",
        "Name[el]": "Εξωτερικά εργαλεία",
        "Name[en_GB]": "External Tools",
        "Name[eo]": "Eksteraj Iloj",
        "Name[es]": "Herramientas externas",
        "Name[eu]": "Kanpoko tresnak",
        "Name[fi]": "Ulkoiset työkalut",
        "Name[fr]": "Outils externes",
        "Name[gl]": "Ferramentas externas",
        "Name[hu]": "Külső eszközök",
        "Name[ia]": "Instrumentos externe",
        "Name[ie]": "Utensiles extern",
        "Name[it]": "Strumenti esterni",
        "Name[ka]": "გარე ხელსაწყოები",
        "Name[ko]": "외부 도구",
        "Name[my]": "ပြင်ပကိရိယာများ",
        "Name[nl]": "Externe hulpmiddelen",
        "Name[pl]": "Narzędzia zewnętrzne",
        "Name[pt]": "Ferramentas Externas",
        "Name[pt_BR]": "Ferramentas externas",
        "Name[ru]": "Внешние инструменты",
        "Name[sk]": "Externé nástroje",
        "Name[sl]": "Zunanja orodja",
        "Name[sv]": "Externa verktyg",
        "Name[tr]": "Dış Araçlar",
        "Name[uk]": "Зовнішні засоби",
        "Name[vi]": "Công cụ bên ngoài",
        "Name[x-test]": "xxExternal Toolsxx",
        "Name[zh_CN]": "外部工具",
        "ServiceTypes": [
            "KTextEditor/Plugin"
        ]
    }
}
